…
    ## [1] 1000   78

**Exercise** Subset the and overwrite the `desire_lines` data frame with
the `=` assignment operator so that it only has the following columns:
geo\_code1, geo\_code2, all, bicycle, foot, car\_driver, and geometry.
You can test the that the operation worked by executing the object name,
the result should look like that shown below.

    ## Simple feature collection with 1000 features and 6 fields
    ## geometry type:  LINESTRING
    ## dimension:      XY
    ## bbox:           xmin: -2.104536 ymin: 53.5695 xmax: -1.153171 ymax: 54.00022
    ## geographic CRS: WGS 84
    ## # A tibble: 1,000 x 7
    ##    geo_code1 geo_code2   all bicycle  foot car_driver                   geometry
    ##    <chr>     <chr>     <int>   <int> <int>      <int>           <LINESTRING [°]>
    ##  1 E02002183 E02002184   537       8   137        317 (-1.880148 53.94245, -1.8…
    ##  2 E02002183 E02002186   176       1     3        143 (-1.880148 53.94245, -1.9…
    ##  3 E02002184 E02002185   325       4     6        217 (-1.81851 53.92598, -1.75…
    ##  4 E02002184 E02002186   334       1     5        256 (-1.81851 53.92598, -1.94…
    ##  5 E02002184 E02002187   159       1     7        113 (-1.81851 53.92598, -1.74…
    ##  6 E02002184 E02002333   191       2     3        139 (-1.81851 53.92598, -1.69…
    ##  7 E02002186 E02002188   259       6     5        204 (-1.941534 53.91154, -1.8…
    ##  8 E02002186 E02002189   233       4    10        155 (-1.941534 53.91154, -1.9…
    ##  9 E02002186 E02002190   714       7    19        478 (-1.941534 53.91154, -1.9…
    ## 10 E02002186 E02002191   341       1    12        188 (-1.941534 53.91154, -1.9…
    ## # … with 990 more rows
…
