…
    ## Data already exists in data_dir, not downloading

    ## Data saved at ~/stats19-data/dftRoadSafetyData_Accidents_2018.csv

    ## Reading in:

    ## ~/stats19-data/dftRoadSafetyData_Accidents_2018.csv

    ## date and time columns present, creating formatted datetime column

``` r
crashes_gb
```

    ## # A tibble: 122,635 x 33
    ##    accident_index location_eastin… location_northi… longitude latitude police_force
    ##    <chr>                     <int>            <int>     <dbl>    <dbl> <chr>       
    ##  1 2018010080971            529150           182270   -0.140      51.5 Metropolita…
    ##  2 2018010080973            542020           184290    0.0465     51.5 Metropolita…
    ##  3 2018010080974            531720           182910   -0.102      51.5 Metropolita…
    ##  4 2018010080981            541450           183220    0.0378     51.5 Metropolita…
    ##  5 2018010080982            543580           176500    0.0658     51.5 Metropolita…
    ##  6 2018010080983            526060           194910   -0.180      51.6 Metropolita…
    ##  7 2018010080986            525050           181050   -0.199      51.5 Metropolita…
    ##  8 2018010080987            536710           176960   -0.0329     51.5 Metropolita…
    ##  9 2018010080990            517110           186280   -0.312      51.6 Metropolita…
    ## 10 2018010080992            535450           181190   -0.0494     51.5 Metropolita…
    ## # … with 122,625 more rows, and 27 more variables: accident_severity <chr>,
    ## #   number_of_vehicles <int>, number_of_casualties <int>, date <date>, day_of_week <chr>,
    ## #   time <chr>, local_authority_district <chr>, local_authority_highway <chr>,
    ## #   first_road_class <chr>, first_road_number <int>, road_type <chr>, speed_limit <int>,
    ## #   junction_detail <chr>, junction_control <chr>, second_road_class <chr>,
    ## #   second_road_number <int>, pedestrian_crossing_human_control <chr>,
    ## #   pedestrian_crossing_physical_facilities <chr>, light_conditions <chr>,
    ## #   weather_conditions <chr>, road_surface_conditions <chr>,
    ## #   special_conditions_at_site <chr>, carriageway_hazards <chr>,
…
